Exploratory analysis of RNAseq data
…
You will also notice that gene names are contained in the row names of this matrix.

To convert this matrix into a tibble object we can use the function as_tibble():

# Convert matrix to tibble
as_tibble(norm_cts)

## # A tibble: 6,011 x 36
##    wt_0_r1 wt_0_r2 wt_0_r3 wt_15_r1 wt_15_r2 wt_15_r3 wt_30_r1 wt_30_r2
##      <dbl>   <dbl>   <dbl>    <dbl>    <dbl>    <dbl>    <dbl>    <dbl>
##  1    4.95    4.97    5.66     5.45     5.44     6.50     5.08     5.25
##  2    5.44    6.21    6.17     5.94     6.33     6.41     6.71     7.15
##  3    5.75    5.06    5.54     5.68     5.18     5.10     5.82     6.31
##  4    5.73    4.87    4.94     5.57     5.32     4.20     5.17     4.77
##  5    7.05    6.84    6.79     6.87     6.09     6.19     6.91     6.66
##  6    5.34    5.34    5.31     5.32     5.99     5.30     7.61     7.48
##  7    6.50    6.23    6.70     7.03     6.92     7.53     6.44     6.68
##  8    7.24    7.46    7.48     7.09     7.46     7.65     6.88     7.13
##  9    5.96    5.69    5.94     5.92     5.87     4.84     7.38     7.30
## 10    6.64    6.65    6.78     4.62     5.61     6.15     5.66     6.50
## # ... with 6,001 more rows, and 28 more variables: wt_30_r3 <dbl>,
## #   wt_60_r1 <dbl>, wt_60_r2 <dbl>, wt_60_r3 <dbl>, wt_120_r1 <dbl>,
## #   wt_120_r2 <dbl>, wt_120_r3 <dbl>, wt_180_r1 <dbl>, wt_180_r2 <dbl>,
## #   wt_180_r3 <dbl>, mut_0_r1 <dbl>, mut_0_r2 <dbl>, mut_0_r3 <dbl>,
## #   mut_15_r1 <dbl>, mut_15_r2 <dbl>, mut_15_r3 <dbl>, mut_30_r1 <dbl>,
## #   mut_30_r2 <dbl>, mut_30_r3 <dbl>, mut_60_r1 <dbl>, mut_60_r2 <dbl>,
## #   mut_60_r3 <dbl>, mut_120_r1 <dbl>, mut_120_r2 <dbl>, mut_120_r3 <dbl>,
## #   mut_180_r1 <dbl>, mut_180_r2 <dbl>, mut_180_r3 <dbl>

But now weve lost our gene names! If we look at the functions help (?as_tibble), we can see that theres a way to solve this problem:

# Convert matrix to tibble - add colnames to a new column called "gene"
norm_cts_tbl <- as_tibble(norm_cts, rownames = "gene")
norm_cts_tbl

## # A tibble: 6,011 x 37
##    gene  wt_0_r1 wt_0_r2 wt_0_r3 wt_15_r1 wt_15_r2 wt_15_r3 wt_30_r1
##    <chr>   <dbl>   <dbl>   <dbl>    <dbl>    <dbl>    <dbl>    <dbl>
##  1 SPAC    4.95    4.97    5.66     5.45     5.44     6.50     5.08
##  2 SPAC    5.44    6.21    6.17     5.94     6.33     6.41     6.71
##  3 SPAC    5.75    5.06    5.54     5.68     5.18     5.10     5.82
##  4 SPNC    5.73    4.87    4.94     5.57     5.32     4.20     5.17
##  5 SPAC    7.05    6.84    6.79     6.87     6.09     6.19     6.91
##  6 SPAC    5.34    5.34    5.31     5.32     5.99     5.30     7.61
##  7 SPAC    6.50    6.23    6.70     7.03     6.92     7.53     6.44
##  8 SPAC    7.24    7.46    7.48     7.09     7.46     7.65     6.88
##  9 SPNC    5.96    5.69    5.94     5.92     5.87     4.84     7.38
## 10 SPAC    6.64    6.65    6.78     4.62     5.61     6.15     5.66
## # ... with 6,001 more rows, and 29 more variables: wt_30_r2 <dbl>,
## #   wt_30_r3 <dbl>, wt_60_r1 <dbl>, wt_60_r2 <dbl>, wt_60_r3 <dbl>,
## #   wt_120_r1 <dbl>, wt_120_r2 <dbl>, wt_120_r3 <dbl>, wt_180_r1 <dbl>,
## #   wt_180_r2 <dbl>, wt_180_r3 <dbl>, mut_0_r1 <dbl>, mut_0_r2 <dbl>,
## #   mut_0_r3 <dbl>, mut_15_r1 <dbl>, mut_15_r2 <dbl>, mut_15_r3 <dbl>,
## #   mut_30_r1 <dbl>, mut_30_r2 <dbl>, mut_30_r3 <dbl>, mut_60_r1 <dbl>,
## #   mut_60_r2 <dbl>, mut_60_r3 <dbl>, mut_120_r1 <dbl>, mut_120_r2 <dbl>,
## #   mut_120_r3 <dbl>, mut_180_r1 <dbl>, mut_180_r2 <dbl>, mut_180_r3 <dbl>
…
A name for the new column that will contain the old column names (the key column)

A name for the new column that will contain our expression counts (the values column)

The names of the columns that we want to gather in this way

Like so:

# "gather" the counts data
norm_cts_long <- norm_cts_tbl %>% 
  gather("sample", "cts", wt_0_r1:mut_180_r3)

norm_cts_long

## # A tibble: 216,396 x 3
##    gene        sample    cts
##    <chr>       <chr>   <dbl>
##  1 SPAC212.11  wt_0_r1  4.95
##  2 SPAC212.09c wt_0_r1  5.44
##  3 SPAC212.04c wt_0_r1  5.75
##  4 SPNCRNA.601 wt_0_r1  5.73
##  5 SPAC977.11  wt_0_r1  7.05
##  6 SPAC977.13c wt_0_r1  5.34
##  7 SPAC977.15  wt_0_r1  6.50
##  8 SPAC977.16c wt_0_r1  7.24
##  9 SPNCRNA.607 wt_0_r1  5.96
## 10 SPAC1F8.06  wt_0_r1  6.64
## # ... with 216,386 more rows

If we wanted to do the reverse, we could use the spread() function:

norm_cts_long %>% 
  spread(sample, cts)

## # A tibble: 6,011 x 37
##    gene  mut_0_r1 mut_0_r2 mut_0_r3 mut_120_r1 mut_120_r2 mut_120_r3
##    <chr>    <dbl>    <dbl>    <dbl>      <dbl>      <dbl>      <dbl>
##  1 SPAC     5.47     5.50     5.48       5.60       5.25       5.26
##  2 SPAC     6.67     6.61     7.03       6.82       7.05       6.90
##  3 SPAC    10.9     10.8     10.9       10.9       10.9       11.0 
##  4 SPAC     8.02     8.06     7.88       8.03       7.87       7.84
##  5 SPAC     7.68     7.62     7.44       7.77       7.65       7.79
##  6 SPAC     8.69     8.92     8.64       8.33       8.62       8.27
##  7 SPAC     8.38     8.32     8.23       8.46       8.41       8.49
##  8 SPAC    12.1     12.0     11.9       11.5       11.5       11.6 
##  9 SPAC     7.73     8.01     7.74       7.71       7.69       7.73
## 10 SPAC     8.03     8.08     8.35       8.35       8.41       8.64
## # ... with 6,001 more rows, and 30 more variables: mut_15_r1 <dbl>,
## #   mut_15_r2 <dbl>, mut_15_r3 <dbl>, mut_180_r1 <dbl>, mut_180_r2 <dbl>,
## #   mut_180_r3 <dbl>, mut_30_r1 <dbl>, mut_30_r2 <dbl>, mut_30_r3 <dbl>,
## #   mut_60_r1 <dbl>, mut_60_r2 <dbl>, mut_60_r3 <dbl>, wt_0_r1 <dbl>,
## #   wt_0_r2 <dbl>, wt_0_r3 <dbl>, wt_120_r1 <dbl>, wt_120_r2 <dbl>,
## #   wt_120_r3 <dbl>, wt_15_r1 <dbl>, wt_15_r2 <dbl>, wt_15_r3 <dbl>,
## #   wt_180_r1 <dbl>, wt_180_r2 <dbl>, wt_180_r3 <dbl>, wt_30_r1 <dbl>,
## #   wt_30_r2 <dbl>, wt_30_r3 <dbl>, wt_60_r1 <dbl>, wt_60_r2 <dbl>,
## #   wt_60_r3 <dbl>

(see here for another example of using these functions)

Exercise:

Convert the raw_cts_tbl created above to a long format using the gather() function

Joining tables together

The next thing we want to do is to add information about each sample to our gene expression table.

sample_info

## # A tibble: 36 x 4
##    sample   strain minute replicate
##    <chr>    <fct>  <fct>  <fct>    
##  1 wt_0_r1  wt     0      r1       
##  2 wt_0_r2  wt     0      r2       
##  3 wt_0_r3  wt     0      r3       
##  4 wt_15_r1 wt     15     r1       
##  5 wt_15_r2 wt     15     r2       
##  6 wt_15_r3 wt     15     r3       
##  7 wt_30_r1 wt     30     r1       
##  8 wt_30_r2 wt     30     r2       
##  9 wt_30_r3 wt     30     r3       
## 10 wt_60_r1 wt     60     r1       
## # ... with 26 more rows
We can do this by joining the norm_cts_long table with the sample_info table.

Joining tables is an important task that is often needed in multi-layered data.

There are several different kinds of joins that can be performed. Look at the Combine Data Sets section of the dplyr cheatsheet to understand them better.

In our case, we know that all samples in our counts table also occur in the sample_info table, so theres a few different kinds of joins that would work.

For safety, lets use full_join(), to ensure we retain all data:

norm_cts_long <- full_join(norm_cts_long, sample_info, by = ("sample"))

norm_cts_long

## # A tibble: 216,396 x 6
##    gene        sample    cts strain minute replicate
##    <chr>       <chr>   <dbl> <fct>  <fct>  <fct>    
##  1 SPAC212.11  wt_0_r1  4.95 wt     0      r1       
##  2 SPAC212.09c wt_0_r1  5.44 wt     0      r1       
##  3 SPAC212.04c wt_0_r1  5.75 wt     0      r1       
##  4 SPNCRNA.601 wt_0_r1  5.73 wt     0      r1       
##  5 SPAC977.11  wt_0_r1  7.05 wt     0      r1       
##  6 SPAC977.13c wt_0_r1  5.34 wt     0      r1       
##  7 SPAC977.15  wt_0_r1  6.50 wt     0      r1       
##  8 SPAC977.16c wt_0_r1  7.24 wt     0      r1       
##  9 SPNCRNA.607 wt_0_r1  5.96 wt     0      r1       
## 10 SPAC1F8.06  wt_0_r1  6.64 wt     0      r1       
## # ... with 216,386 more rows
…
To compute a PCA in R we can use the prcomp() function. This function can take a matrix of data, where the columns are the variables that we want to use to transform our samples, which shoul be the rows of the matrix.

In our case, we want to look for similarities across our yeast cells (samples = rows) based on gene expression (variables = columns). For that reason, we need to provide a transposed version of our table to the prcomp() function:

sample_pca <- prcomp(t(norm_cts))

The output from this command contains several pieces of information, namely: * eigenvectors * eigenvalues * PC scores

We can access these pieces of data using convenient functions from the broom package:

library(broom)
tidy(sample_pca, matrix = "samples")    # PC scores for our yeast samples

## # A tibble: 1,296 x 3
##    row         PC  value
##    <fct>    <dbl>  <dbl>
##  1 wt_0_r1      1 -21.5 
##  2 wt_0_r2      1 -20.9 
##  3 wt_0_r3      1 -20.8 
##  4 wt_15_r1     1  12.2 
##  5 wt_15_r2     1  11.0 
##  6 wt_15_r3     1  14.5 
##  7 wt_30_r1     1  33.1 
##  8 wt_30_r2     1  35.7 
##  9 wt_30_r3     1  33.2 
## 10 wt_60_r1     1  -1.87
## # ... with 1,286 more rows

tidy(sample_pca, matrix = "variables")  # variable loadings (eigen vectors) for genes that were used as variables in PCA

## # A tibble: 216,396 x 3
##    column         PC    value
##    <chr>       <dbl>    <dbl>
##  1 SPAC212.11      1  0.00653
##  2 SPAC212.09c     1  0.00915
##  3 SPAC212.04c     1  0.0125 
##  4 SPNCRNA.601     1 -0.00461
##  5 SPAC977.11      1 -0.00176
##  6 SPAC977.13c     1  0.0342 
##  7 SPAC977.15      1  0.0126 
##  8 SPAC977.16c     1  0.0102 
##  9 SPNCRNA.607     1  0.0221 
## 10 SPAC1F8.06      1 -0.0159 
## # ... with 216,386 more rows

tidy(sample_pca, matrix = "pcs")        # PC variances (eigen values)

## # A tibble: 36 x 4
##       PC std.dev percent cumulative
##    <dbl>   <dbl>   <dbl>      <dbl>
##  1     1   18.7   0.388       0.388
##  2     2   12.1   0.163       0.552
##  3     3    8.76  0.0850      0.637
##  4     4    7.15  0.0567      0.693
##  5     5    6.99  0.0541      0.747
##  6     6    5.43  0.0326      0.780
##  7     7    5.20  0.0299      0.810
##  8     8    4.10  0.0186      0.828
##  9     9    3.79  0.0159      0.844
## 10    10    3.67  0.0149      0.859
## # ... with 26 more rows
…
