Data manipulation - example from transcriptome analysis
…
You will also notice that gene names are contained in the row names of this matrix.

To convert this matrix into a tibble object we can use the function as_tibble():

# Convert matrix to tibble
as_tibble(norm_cts)

## # A tibble: 64,102 x 8
##    SRR1039508 SRR1039509 SRR1039512 SRR1039513 SRR1039516 SRR1039517
##         <dbl>      <dbl>      <dbl>      <dbl>      <dbl>      <dbl>
##  1       9.76       9.45       9.88       9.66      10.2        9.90
##  2       6.76       6.76       6.76       6.76       6.76       6.76
##  3       9.36       9.60       9.51       9.54       9.45       9.59
##  4       8.80       8.73       8.68       8.76       8.63       8.73
##  5       7.80       7.82       7.56       7.74       7.86       7.67
##  6       6.76       6.76       6.94       6.76       6.89       6.76
##  7      11.7       12.1       12.4       12.7       12.5       13.0 
##  8      10.7       10.4       10.7       10.6       10.5       10.3 
##  9       9.47       9.28       9.46       9.88       9.81       9.47
## 10       9.18       8.83       9.20       8.82       9.57       9.26
## # ... with 64,092 more rows, and 2 more variables: SRR1039520 <dbl>,
## #   SRR1039521 <dbl>

But now weve lost our gene names! If we look at the functions help (?as_tibble), we can see that theres a way to solve this problem:

# Convert matrix to tibble - add colnames to a new column called "gene"
cts_tbl <- as_tibble(norm_cts, rownames = "gene")
cts_tbl

## # A tibble: 64,102 x 9
##    gene  SRR1039508 SRR1039509 SRR1039512 SRR1039513 SRR1039516 SRR1039517
##    <chr>      <dbl>      <dbl>      <dbl>      <dbl>      <dbl>      <dbl>
##  1 ENSG       9.76       9.45       9.88       9.66      10.2        9.90
##  2 ENSG       6.76       6.76       6.76       6.76       6.76       6.76
##  3 ENSG       9.36       9.60       9.51       9.54       9.45       9.59
##  4 ENSG       8.80       8.73       8.68       8.76       8.63       8.73
##  5 ENSG       7.80       7.82       7.56       7.74       7.86       7.67
##  6 ENSG       6.76       6.76       6.94       6.76       6.89       6.76
##  7 ENSG      11.7       12.1       12.4       12.7       12.5       13.0 
##  8 ENSG      10.7       10.4       10.7       10.6       10.5       10.3 
##  9 ENSG       9.47       9.28       9.46       9.88       9.81       9.47
## 10 ENSG       9.18       8.83       9.20       8.82       9.57       9.26
## # ... with 64,092 more rows, and 2 more variables: SRR1039520 <dbl>,
## #   SRR1039521 <dbl>
…
A name for the new column that will contain the old column names (the key column)

A name for the new column that will contain our expression counts (the values column)

The names of the columns that we want to gather in this way

Like so:

# "gather" the counts data
cts_long <- cts_tbl %>% 
  gather(sample_id, cts, SRR1039508:SRR1039521)

cts_long

## # A tibble: 512,816 x 3
##    gene            sample_id    cts
##    <chr>           <chr>      <dbl>
##  1 ENSG00000000003 SRR1039508  9.76
##  2 ENSG00000000005 SRR1039508  6.76
##  3 ENSG00000000419 SRR1039508  9.36
##  4 ENSG00000000457 SRR1039508  8.80
##  5 ENSG00000000460 SRR1039508  7.80
##  6 ENSG00000000938 SRR1039508  6.76
##  7 ENSG00000000971 SRR1039508 11.7 
##  8 ENSG00000001036 SRR1039508 10.7 
##  9 ENSG00000001084 SRR1039508  9.47
## 10 ENSG00000001167 SRR1039508  9.18
## # ... with 512,806 more rows

If we wanted to do the reverse, we could use the spread() function:

cts_long %>% 
  spread(sample_id, cts)

## # A tibble: 64,102 x 9
##    gene  SRR1039508 SRR1039509 SRR1039512 SRR1039513 SRR1039516 SRR1039517
##  * <chr>      <dbl>      <dbl>      <dbl>      <dbl>      <dbl>      <dbl>
##  1 ENSG       9.76       9.45       9.88       9.66      10.2        9.90
##  2 ENSG       6.76       6.76       6.76       6.76       6.76       6.76
##  3 ENSG       9.36       9.60       9.51       9.54       9.45       9.59
##  4 ENSG       8.80       8.73       8.68       8.76       8.63       8.73
##  5 ENSG       7.80       7.82       7.56       7.74       7.86       7.67
##  6 ENSG       6.76       6.76       6.94       6.76       6.89       6.76
##  7 ENSG      11.7       12.1       12.4       12.7       12.5       13.0 
##  8 ENSG      10.7       10.4       10.7       10.6       10.5       10.3 
##  9 ENSG       9.47       9.28       9.46       9.88       9.81       9.47
## 10 ENSG       9.18       8.83       9.20       8.82       9.57       9.26
## # ... with 64,092 more rows, and 2 more variables: SRR1039520 <dbl>,
## #   SRR1039521 <dbl>
…
We can do this by joining the cts_long table with the sample_info table.

Joining tables is an important task that is often needed in multi-layered data.

There are several different kinds of joins that can be performed. Lets look at the Combine Data Sets section of the dplyr cheatsheet to understand them better.

In our case, we know that all samples in our counts table also occur in the sample_info table, so theres a few different kinds of joins that would work.

For safety, lets use full_join(), to ensure we retain all data:

cts_long <- full_join(cts_long, sample_info, by = c("sample_id" = "sample"))

cts_long

## # A tibble: 512,816 x 5
##    gene            sample_id    cts cell   dex  
##    <chr>           <chr>      <dbl> <chr>  <chr>
##  1 ENSG00000000003 SRR1039508  9.76 N61311 untrt
##  2 ENSG00000000005 SRR1039508  6.76 N61311 untrt
##  3 ENSG00000000419 SRR1039508  9.36 N61311 untrt
##  4 ENSG00000000457 SRR1039508  8.80 N61311 untrt
##  5 ENSG00000000460 SRR1039508  7.80 N61311 untrt
##  6 ENSG00000000938 SRR1039508  6.76 N61311 untrt
##  7 ENSG00000000971 SRR1039508 11.7  N61311 untrt
##  8 ENSG00000001036 SRR1039508 10.7  N61311 untrt
##  9 ENSG00000001084 SRR1039508  9.47 N61311 untrt
## 10 ENSG00000001167 SRR1039508  9.18 N61311 untrt
## # ... with 512,806 more rows
Notice how, in this case, the columns we wanted to be matched between the two tables had different names. Also, we can join tables by more than one column, which is not necessary here.

Filter and classify genes

Now we want to add information about the test results for each gene to our gene expression table. However, we only want to retain genes that are likely to have a response to the treatment.

Exercise:

Using the test_result table, make a new table called genes_of_interest that contains only those genes with padj < 0.05. Keep only the columns gene, log2FoldChange.

Create a new table called cts_filtered by joining the previous table with the cts_long table. Retain only the filtered genes.

cts_filtered

## # A tibble: 1,496 x 6
##    gene            sample_id    cts cell    dex   log2FoldChange
##    <chr>           <chr>      <dbl> <chr>   <chr>          <dbl>
##  1 ENSG00000013293 SRR1039508  8.82 N61311  untrt          -2.65
##  2 ENSG00000013293 SRR1039509  7.45 N61311  trt            -2.65
##  3 ENSG00000013293 SRR1039512  9.14 N052611 untrt          -2.65
##  4 ENSG00000013293 SRR1039513  7.99 N052611 trt            -2.65
##  5 ENSG00000013293 SRR1039516  9.39 N080611 untrt          -2.65
##  6 ENSG00000013293 SRR1039517  7.75 N080611 trt            -2.65
##  7 ENSG00000013293 SRR1039520  9.67 N061011 untrt          -2.65
##  8 ENSG00000013293 SRR1039521  7.95 N061011 trt            -2.65
##  9 ENSG00000013297 SRR1039508 12.7  N61311  untrt          -1.67
## 10 ENSG00000013297 SRR1039509 10.9  N61311  trt            -1.67
## # ... with 1,486 more rows

Finally, we want to classify our genes according to whether they were up- or down-regulated after the treatement. These genes would have, respectively, a positive or negative log2(fold-change) between the two conditions.

We can therefore use the log2FoldChange column to create a new column that will classify our genes as being of either class, depending on whether its value is positive or negative. This type of operation can be done using the ifelse() function.

cts_filtered <- cts_filtered %>% 
  mutate(up_or_down = ifelse(log2FoldChange > 0, "up-regulated", "down-regulated"))

cts_filtered

## # A tibble: 1,496 x 7
##    gene            sample_id    cts cell   dex   log2FoldChange up_or_down
##    <chr>           <chr>      <dbl> <chr>  <chr>          <dbl> <chr>     
##  1 ENSG00000013293 SRR1039508  8.82 N61311 untrt          -2.65 down-regu
##  2 ENSG00000013293 SRR1039509  7.45 N61311 trt            -2.65 down-regu
##  3 ENSG00000013293 SRR1039512  9.14 N0526 untrt          -2.65 down-regu
##  4 ENSG00000013293 SRR1039513  7.99 N0526 trt            -2.65 down-regu
##  5 ENSG00000013293 SRR1039516  9.39 N0806 untrt          -2.65 down-regu
##  6 ENSG00000013293 SRR1039517  7.75 N0806 trt            -2.65 down-regu
##  7 ENSG00000013293 SRR1039520  9.67 N0610 untrt          -2.65 down-regu
##  8 ENSG00000013293 SRR1039521  7.95 N0610 trt            -2.65 down-regu
##  9 ENSG00000013297 SRR1039508 12.7  N61311 untrt          -1.67 down-regu
## 10 ENSG00000013297 SRR1039509 10.9  N61311 trt            -1.67 down-regu
## # ... with 1,486 more rows

Calculate mean expression per gene

Now, we can apply the split-apply-combine strategy that weve already learned about, to summarise the data per gene.

Exercise:

Using group_by and summarise create a new table called cts_per_gene with the mean expression of each gene in each treatment.

## # A tibble: 374 x 4
##    gene            dex   up_or_down     mean_cts
##    <chr>           <chr> <chr>             <dbl>
##  1 ENSG00000013293 trt   down-regulated     7.79
##  2 ENSG00000013293 untrt down-regulated     9.26
##  3 ENSG00000013297 trt   down-regulated    10.8 
##  4 ENSG00000013297 untrt down-regulated    12.4 
##  5 ENSG00000025423 trt   down-regulated     7.80
##  6 ENSG00000025423 untrt down-regulated     8.75
##  7 ENSG00000035664 trt   up-regulated      10.1 
##  8 ENSG00000035664 untrt up-regulated       8.90
##  9 ENSG00000046653 trt   up-regulated      10.7 
## 10 ENSG00000046653 untrt up-regulated       8.87
## # ... with 364 more rows
…
